{"count":195,"next":"http://10.0.0.20:8080/api/v2/findings/?engagement=24&limit=1&offset=1","previous":null,"results":[{"id":3,"mitigated":null,"mitigated_by":null,"tags":["component-vm","juice-shop","lab3"],"request_response":{"req_resp":[]},"accepted_risks":[],"push_to_jira":false,"found_by":[29],"age":1,"sla_days_remaining":6,"finding_meta":[],"related_fields":null,"jira_creation":null,"jira_change":null,"display_status":"Active, Verified","finding_groups":[],"vulnerability_ids":[{"vulnerability_id":"CVE-2015-9235"}],"reporter":1,"endpoints":[],"created":"2026-05-19T18:37:16.036670Z","updated":"2026-05-19T18:37:16.036688Z","title":"CVE-2015-9235: Jsonwebtoken Algorithm Confusion (RS256/HS)","date":"2026-05-19","sla_start_date":null,"sla_expiration_date":"2026-05-26","cwe":327,"epss_score":null,"epss_percentile":null,"known_exploited":false,"ransomware_used":false,"kev_date":null,"cvssv3":"CVSS:3.0/AV:N/AC:L/PR:N/UI:N/S:U/C:H/I:H/A:H","cvssv3_score":9.8,"cvssv4":null,"cvssv4_score":null,"url":null,"severity":"Critical","description":"OWASP Juice Shop 17.0.0, стенд http://127.0.0.1:3000 (Docker bkimminich/juice-shop). Компонент: jsonwebtoken 0.4.0. JWT выдаётся при POST /rest/user/login (RS256, lib/insecurity.ts). Версия < 4.2.2 — обход проверки подписи при подмене алгоритма на HS*.","mitigation":"Обновить jsonwebtoken до >= 9.x; в jwt.verify явно указать algorithms: ['RS256']; ротировать ключи в encryptionkeys/.","fix_available":null,"fix_version":null,"impact":"Обход аутентификации: доступ к /rest/basket/*, /api/* от имени другого пользователя; компрометация сессий при экспозиции порта 3000.","steps_to_reproduce":null,"severity_justification":null,"references":"https://nvd.nist.gov/vuln/detail/CVE-2015-9235, https://github.com/advisories/GHSA-c7hr-j4mj-j2w6, https://bdu.fstec.ru/search/index?q=CVE-2015-9235","active":true,"verified":true,"false_p":false,"duplicate":false,"out_of_scope":false,"risk_accepted":false,"under_review":false,"last_status_update":"2026-05-19T18:37:16.036816Z","under_defect_review":false,"is_mitigated":false,"thread_id":0,"numerical_severity":"S0","last_reviewed":"2026-05-19T18:37:15.975989Z","param":null,"payload":null,"hash_code":"3ee8a69ba86e3760d154d66a229505b67ac34f68eba75a7040eb4c3dc2907f2e","line":null,"file_path":null,"component_name":"jsonwebtoken","component_version":"0.4.0","static_finding":false,"dynamic_finding":true,"scanner_confidence":null,"unique_id_from_tool":null,"vuln_id_from_tool":null,"sast_source_object":null,"sast_sink_object":null,"sast_source_line":null,"sast_source_file_path":null,"nb_occurences":null,"publish_date":null,"service":null,"planned_remediation_date":null,"planned_remediation_version":null,"effort_for_fixing":null,"test":4,"duplicate_finding":null,"review_requested_by":null,"defect_review_requested_by":null,"last_reviewed_by":1,"sonarqube_issue":null,"reviewers":[],"notes":[],"files":[]}],"prefetch":{}}